Long Form EDA
…
View(hashtag_joebiden)

Sentiment Lexicons

I will be using the sentiment lexicons bing and afinn for this project.

get_sentiments("bing")

## # A tibble: 6,786 x 2
##    word        sentiment
##    <chr>       <chr>    
##  1 2-faces     negative 
##  2 abnormal    negative 
##  3 abolish     negative 
##  4 abominable  negative 
##  5 abominably  negative 
##  6 abominate   negative 
##  7 abomination negative 
##  8 abort       negative 
##  9 aborted     negative 
## 10 aborts      negative 
## # ... with 6,776 more rows

Bing gives a tibble that has a column of words and another column assigning the words a negative or positive sentiment. Some of the negative words are hypocritical, accuse, and god-awful. Some examples of the positive words are adore, glow, and ideal.

get_sentiments("afinn")

## # A tibble: 2,477 x 2
##    word       value
##    <chr>      <dbl>
##  1 abandon       -2
##  2 abandoned     -2
##  3 abandons      -2
##  4 abducted      -2
##  5 abduction     -2
##  6 abductions    -2
##  7 abhor         -3
##  8 abhorred      -3
##  9 abhorrent     -3
## 10 abhors        -3
## # ... with 2,467 more rows
…
The Biden dataset showed the same pattern where there were more tweets with only negative words and no positive words. The pattern between both datasets suggests that more Twitter users who tweet about the candidates use negative words, which contrasts the trends from the percentage graphs where there were increases in the tweets, especially during Election Week. However, the ratio bar graphs include all of the tweets counted and not graphed over time.

How do Twitter users interact with tweets with positive or negative tweets through likes and retweets?

Twitter user engagement with tweets of different sentiments indicates how much users approve of the content tweeted. I wanted to look at the number of likes and retweets both to see if tweets with more extreme sentiments elicit a potentially more emotionally-charged reaction and gain more engagement with the tweets. Additionally, tweets that receive more likes and retweets also tend to get more exposure because the likes and retweets boost tweets and expand their networks.

# Counts the number of positive or negative words for the tweets with the most retweets
trump_main %>%
  group_by(tweet_id) %>% 
  count(retweet_count, sentiment) %>% 
  # I arranged the tibble descending by retweets to see the tweets with the most retweets
  arrange(desc(retweet_count)) 

## # A tibble: 29,616 x 4
## # Groups:   tweet_id [21,734]
##    tweet_id retweet_count sentiment     n
##       <int>         <dbl> <chr>     <int>
##  1    25174          3466 positive      1
##  2    27371          2360 negative      2
##  3    32761          2084 negative      3
##  4     3160          1669 negative      1
##  5     3160          1669 positive      2
##  6     1027          1665 positive      1
##  7    25560          1658 negative      3
##  8    25560          1658 positive      3
##  9    23823          1382 negative      1
## 10    23823          1382 positive      1
## # ... with 29,606 more rows
…
Repeat the process with the Biden dataset.

# Counts the number of positive or negative words for the tweets with the most retweets
biden_main %>%
  group_by(tweet_id) %>% 
  count(retweet_count, sentiment) %>% 
  # I arranged the tibble descending by retweets to see the tweets with the most retweets
  arrange(desc(retweet_count))

## # A tibble: 461,408 x 4
## # Groups:   tweet_id [360,935]
##    tweet_id retweet_count sentiment     n
##       <int>         <dbl> <chr>     <int>
##  1    10626         63473 negative      1
##  2   164998         18272 positive      2
##  3    20436         17652 positive      6
##  4   298232         14024 positive      2
##  5   278951          7553 positive      4
##  6   196719          7489 negative      7
##  7   196719          7489 positive      3
##  8   570477          6302 negative      1
##  9   570477          6302 positive      2
## 10   281656          6133 negative      7
## # ... with 461,398 more rows
…
I repeated the processes again with the number of likes and found similar patterns as the retweet counts, starting with the Trump dataset.

# Counts the number of positive or negative words for the tweets with the most likes
trump_main %>% 
  group_by(tweet_id) %>% 
  count(likes, sentiment) %>% 
  arrange(desc(likes))

## # A tibble: 29,616 x 4
## # Groups:   tweet_id [21,734]
##    tweet_id likes sentiment     n
##       <int> <dbl> <chr>     <int>
##  1    25174 11018 positive      1
##  2    32761 10839 negative      3
##  3    25560 10238 negative      3
##  4    25560 10238 positive      3
##  5    27379 10047 negative      1
##  6    24985 10010 negative      1
##  7    25324  9920 positive      2
##  8    22433  9239 positive      1
##  9    27371  7888 negative      2
## 10    23823  7388 negative      1
## # ... with 29,606 more rows
…
I repeated the process again with the Biden dataset.

# Counts the number of positive or negative words for the tweets with the most likes
biden_main %>% 
  group_by(tweet_id) %>% 
  count(likes, sentiment) %>% 
  arrange(desc(likes))

## # A tibble: 461,408 x 4
## # Groups:   tweet_id [360,935]
##    tweet_id  likes sentiment     n
##       <int>  <dbl> <chr>     <int>
##  1    20436 165702 positive      6
##  2    10626 143454 negative      1
##  3   298232 126772 positive      2
##  4   278951  80670 positive      4
##  5   196719  59403 negative      7
##  6   196719  59403 positive      3
##  7   713716  59345 positive      1
##  8   164998  46313 positive      2
##  9   281656  45540 negative      7
## 10   281656  45540 positive      3
## # ... with 461,398 more rows
…
The grah visualizes the distribution of words with each sentiment value. For both positive and negative words, the value peaks at 2 and decreases as the words get more extreme.

# Graph the number of words with each value per tweet
trump_main %>% 
  group_by(tweet_id) %>% 
  count(trump_words, value)

## # A tibble: 41,044 x 4
## # Groups:   tweet_id [19,239]
##    tweet_id trump_words value     n
##       <int> <chr>       <dbl> <int>
##  1        1 attacking      -1     1
##  2        5 lost           -3     1
##  3        5 wrong          -2     1
##  4        7 crime          -3     1
##  5        7 criminal       -3     1
##  6        7 justice         2     1
##  7        7 outrage        -3     1
##  8        7 travesty       -2     1
##  9        9 approved        2     1
## 10        9 cheat          -3     1
## # ... with 41,034 more rows
…
The graph provides a visualization of the count distribution. There were more somewhat positive words tweeted about Biden than negative words, but the pattern is the same on both ends.

# Graph the number of words with each value per tweet
biden_main %>% 
  group_by(tweet_id) %>% 
  count(biden_words, value)

## # A tibble: 644,711 x 4
## # Groups:   tweet_id [338,643]
##    tweet_id biden_words value     n
##       <int> <chr>       <dbl> <int>
##  1        7 favor           2     1
##  2        7 fine            2     1
##  3        7 sick           -2     1
##  4       10 suspend        -1     1
##  5       11 chaos          -2     1
##  6       11 excitement      3     1
##  7       11 popular         3     1
##  8       11 win             4     1
##  9       15 riots          -2     1
## 10       15 worse          -3     1
## # ... with 644,701 more rows
…
